{
    "main": {
        "sub": [
            "osnovni_pr",
            "krovotecha",
            "transportuvannya",
            "reanimaciya",
            "povyazky",
            "v_ukrutti"
        ],
        "title": "main",
        "content": "",
    },
    "krovotecha" : {
        "title": "krovotecha",
        "sub": [
            "zagalni_polojennya",
            "shiya",
            "tulub",
            "ruky",
            "nogy"
        ],
        "content": ""
    },
    "tulub" : {
        "title": "tulub",
        "sub": [
            "pid_obstrilom19",
            "zup_rana_tuluba"
        ],
        "content": ""
    },
    "ruky" : {
        "title": "ruky",
        "sub": [
            "osnovni_principy",
            "vzaemodopomoga_22",
            "samodopomoga_56",
            "zup_rana_kinc"
        ],
        "content": ""
    },
    "nogy" : {
        "title": "nogy",
        "sub": [
            "osnovni_principy_20",
            "vzaemodopomoga_25",
            "samodopomoga_56",
            "zup_rana_kinc"
        ],
        "content": ""
    },
    "transportuvannya" : {
        "title": "transportuvannya",
        "sub": [
            "lejachi",
            "stoyachi_1",
            "stoyachi_2",
            "dvoma_1",
            "dvoma_2"
        ],
        "content": ""
    },
    "povyazky" : {
        "title": "povyazky",
        "sub": [
            "gr_klityna",
            "golova",
            "givit"
        ],
        "content": ""
    },
    "v_ukrutti" : {
        "title": "v_ukrutti",
        "sub": [
            "perv_oglyad",
            "reanimaciya",
            "stab_polojennya",
            "zup_rana_tuluba",
            "zup_rana_kinc"
        ],
        "content": ""
    }
}